{
  "isCustomSystemExport": true,
  "actors": [
    {
      "type": "_template",
      "name": "Character",
      "data": {
        "hidden": [],
        "header": {
          "contents": [
            {
              "key": "background_panel",
              "cssClass": "",
              "role": "0",
              "permission": "0",
              "tooltip": "",
              "contents": [
                {
                  "key": "background_type",
                  "cssClass": "",
                  "role": "0",
                  "permission": "0",
                  "tooltip": "",
                  "label": "Background: ",
                  "defaultValue": "",
                  "size": "full-size",
                  "charList": "",
                  "maxLength": "",
                  "type": "textField"
                }
              ],
              "flow": "horizontal",
              "align": "left",
              "type": "panel"
            },
            {
              "key": "attributes_panel",
              "cssClass": "",
              "role": "0",
              "permission": "0",
              "tooltip": "",
              "contents": [
                {
                  "key": "skill_panel",
                  "cssClass": "",
                  "role": "0",
                  "permission": "0",
                  "tooltip": "",
                  "contents": [
                    {
                      "key": "skill_header",
                      "cssClass": "attribute_header",
                      "role": "0",
                      "permission": "0",
                      "tooltip": "",
                      "label": null,
                      "defaultValue": null,
                      "size": "full-size",
                      "icon": "",
                      "value": "Skill",
                      "prefix": "",
                      "suffix": "",
                      "rollMessage": "",
                      "altRollMessage": "",
                      "style": "label",
                      "type": "label"
                    },
                    {
                      "key": "skill",
                      "cssClass": "",
                      "role": "0",
                      "permission": "0",
                      "tooltip": "",
                      "label": "",
                      "defaultValue": "0",
                      "size": "full-size",
                      "allowDecimal": false,
                      "minVal": "0",
                      "maxVal": "",
                      "allowRelative": false,
                      "showControls": false,
                      "type": "numberField"
                    },
                    {
                      "key": "",
                      "cssClass": "",
                      "role": "0",
                      "permission": "0",
                      "tooltip": "",
                      "contents": [
                        {
                          "key": "skill_roll_under",
                          "cssClass": "",
                          "role": "0",
                          "permission": "0",
                          "tooltip": "",
                          "label": null,
                          "defaultValue": null,
                          "size": "full-size",
                          "icon": "",
                          "value": "Roll Under",
                          "prefix": "",
                          "suffix": "",
                          "rollMessage": "<h3>Skill Test</h3>\n<table>\n<tbody>\n<tr>\n<td class=\"chat-left-label\">Target:</td>\n<td class=\"chat-right-label\">${target:=skill+?{Modifier|0}}$</td>\n</tr>\n<tr>\n<td class=\"chat-left-label\">Roll:</td>\n<td class=\"chat-right-label\">${roll:=[2d6]}$</td>\n</tr>\n<tr>\n<td colspan=\"2\" class=\"centred\">\n<span class=\"mighty-blow\">${ roll <= target ? 'SUCCESS!' : '' }$</span>\n<span class=\"fumble\">${ roll > target ? 'FAIL!' : '' }$</span>\n<span class=\"fumble\">${ roll == 12 ? 'Two 6s! FAILURE!' : '' }$</span>\n</td>\n</tr>\n</tbody>\n</table>",
                          "altRollMessage": "",
                          "style": "label",
                          "type": "label"
                        },
                        {
                          "key": "skill_roll_versus",
                          "cssClass": "",
                          "role": "0",
                          "permission": "0",
                          "tooltip": "",
                          "label": null,
                          "defaultValue": null,
                          "size": "full-size",
                          "icon": "",
                          "value": "Roll Versus",
                          "prefix": "",
                          "suffix": "",
                          "rollMessage": "<h3>Skill Test</h3>\n<table>\n<tbody>\n<tr>\n<td class=\"chat-left-label\">Result:</td>\n<td class=\"chat-right-label\">${#roll_mod:=skill+?{Modifier|0}}$ ${#roll:=[2d6]}$ ${result:= roll + roll_mod }$ \n</td>\n</tr>\n<tr>\n<td colspan=\"2\" class=\"centred\">\n<span class=\"fumble\">${ roll == 2 ? 'FUMBLE!' : '' }$</span>\n<span class=\"mighty-blow\">${ roll == 12 ? 'MIGHTY BLOW!' : '' }$</span>\n</td>\n</tr>\n</tbody>\n</table>",
                          "altRollMessage": "",
                          "style": "label",
                          "type": "label"
                        }
                      ],
                      "flow": "horizontal",
                      "align": "center",
                      "type": "panel"
                    }
                  ],
                  "flow": "vertical",
                  "align": "center",
                  "type": "panel"
                },
                {
                  "key": "stamina_panel",
                  "cssClass": "",
                  "role": "0",
                  "permission": "0",
                  "tooltip": "",
                  "contents": [
                    {
                      "key": "stamina_label",
                      "cssClass": "attribute_header",
                      "role": "0",
                      "permission": "0",
                      "tooltip": "",
                      "label": null,
                      "defaultValue": null,
                      "size": "full-size",
                      "icon": "",
                      "value": "Stamina",
                      "prefix": "",
                      "suffix": "",
                      "rollMessage": "",
                      "altRollMessage": "",
                      "style": "label",
                      "type": "label"
                    },
                    {
                      "key": "stamina",
                      "cssClass": "",
                      "role": "0",
                      "permission": "0",
                      "tooltip": "",
                      "label": "",
                      "defaultValue": "0",
                      "size": "full-size",
                      "allowDecimal": false,
                      "minVal": "0",
                      "maxVal": "",
                      "allowRelative": false,
                      "showControls": false,
                      "type": "numberField"
                    },
                    {
                      "key": "",
                      "cssClass": "",
                      "role": "0",
                      "permission": "0",
                      "tooltip": "",
                      "contents": [
                        {
                          "key": "stamina_current",
                          "cssClass": "",
                          "role": "0",
                          "permission": "0",
                          "tooltip": "",
                          "label": "Current: ",
                          "defaultValue": "0",
                          "size": "full-size",
                          "allowDecimal": false,
                          "minVal": "0",
                          "maxVal": "",
                          "allowRelative": false,
                          "showControls": false,
                          "type": "numberField"
                        }
                      ],
                      "flow": "vertical",
                      "align": "center",
                      "type": "panel"
                    }
                  ],
                  "flow": "vertical",
                  "align": "center",
                  "type": "panel"
                },
                {
                  "key": "luck_panel",
                  "cssClass": "",
                  "role": "0",
                  "permission": "0",
                  "tooltip": "",
                  "contents": [
                    {
                      "key": "luck_header",
                      "cssClass": "attribute_header",
                      "role": "0",
                      "permission": "0",
                      "tooltip": "",
                      "label": null,
                      "defaultValue": null,
                      "size": "full-size",
                      "icon": "",
                      "value": "Luck",
                      "prefix": "",
                      "suffix": "",
                      "rollMessage": "Luck Roll - Roll 2d6 equal to or less than your current Luck score. \n\n<h3>Luck Roll</h3>\n<table>\n<tbody>\n<tr>\n<td class=\"chat-left-label\">Target:</td>\n<td class=\"chat-right-label\">${target:=luck_current}$</td>\n</tr>\n<tr>\n<td class=\"chat-left-label\">Roll:</td>\n<td>${roll:=[2d6]}$ -- ${ roll <= target ? 'Success' : 'Fail' }$</td>\n</tr>\n<tr>\n<td colspan=\"2\">Every time you Test your Luck, reduce your current Luck score by 1 regardless of whether the Test was successful or not.</td>\n</tr>\n</tbody>\n</table>",
                      "altRollMessage": "",
                      "style": "label",
                      "type": "label"
                    },
                    {
                      "key": "luck",
                      "cssClass": "",
                      "role": "0",
                      "permission": "0",
                      "tooltip": "",
                      "label": "",
                      "defaultValue": "0",
                      "size": "full-size",
                      "allowDecimal": false,
                      "minVal": "0",
                      "maxVal": "",
                      "allowRelative": false,
                      "showControls": false,
                      "type": "numberField"
                    },
                    {
                      "key": "",
                      "cssClass": "",
                      "role": "0",
                      "permission": "0",
                      "tooltip": "",
                      "contents": [
                        {
                          "key": "luck_current",
                          "cssClass": "",
                          "role": "0",
                          "permission": "0",
                          "tooltip": "",
                          "label": "Current: ",
                          "defaultValue": "0",
                          "size": "full-size",
                          "allowDecimal": false,
                          "minVal": "0",
                          "maxVal": "",
                          "allowRelative": false,
                          "showControls": false,
                          "type": "numberField"
                        }
                      ],
                      "flow": "vertical",
                      "align": "center",
                      "type": "panel"
                    }
                  ],
                  "flow": "vertical",
                  "align": "center",
                  "type": "panel"
                }
              ],
              "flow": "grid-3",
              "align": "center",
              "type": "panel"
            }
          ],
          "key": "custom_header",
          "cssClass": null,
          "role": 0,
          "permission": 0,
          "tooltip": null,
          "flow": null,
          "align": null,
          "type": "panel"
        },
        "body": {
          "contents": [
            {
              "key": "main_panel",
              "cssClass": "",
              "role": "0",
              "permission": "0",
              "tooltip": "",
              "contents": [
                {
                  "key": "advanced_skills",
                  "cssClass": null,
                  "role": "0",
                  "permission": "0",
                  "tooltip": "",
                  "contents": [
                    {
                      "key": "skills_table",
                      "cssClass": "",
                      "role": "0",
                      "permission": "0",
                      "tooltip": "",
                      "rowLayout": [
                        {
                          "key": "skill_roll",
                          "cssClass": null,
                          "role": "0",
                          "permission": "0",
                          "tooltip": "",
                          "label": null,
                          "defaultValue": null,
                          "size": "x-small",
                          "icon": "",
                          "value": "",
                          "prefix": "",
                          "suffix": "",
                          "rollMessage": "<h3>${sameRow('skill_name')}$ Skill Test</h3>\n<table>\n<tbody>\n<tr>\n<td class=\"chat-left-label\">Target:</td>\n<td class=\"chat-right-label\">${target:=sameRow('skill_total')+?{Modifier|0}}$</td>\n</tr>\n<tr>\n<td class=\"chat-left-label\">Roll:</td>\n<td class=\"chat-right-label\">${roll:=[2d6]}$</td>\n</tr>\n<tr>\n<td colspan=\"2\" class=\"centred\">\n<span class=\"mighty-blow\">${ roll <= target ? 'SUCCESS!' : '' }$</span>\n<span class=\"fumble\">${ roll > target ? 'FAIL!' : '' }$</span>\n<span class=\"fumble\">${ roll == 12 ? 'Two 6s! FAILURE!' : '' }$</span>\n</td>\n</tr>\n</tbody>\n</table>",
                          "altRollMessage": "",
                          "style": "label",
                          "type": "label",
                          "align": "center",
                          "colName": "Under"
                        },
                        {
                          "key": "roll_combat",
                          "cssClass": null,
                          "role": "0",
                          "permission": "0",
                          "tooltip": "",
                          "label": null,
                          "defaultValue": null,
                          "size": "x-small",
                          "icon": "",
                          "value": "",
                          "prefix": "",
                          "suffix": "",
                          "rollMessage": "<h3>${sameRow('skill_name')}$ Skill Test</h3>\n<table>\n<tbody>\n<tr>\n<td class=\"chat-left-label\">Result:</td>\n<td class=\"chat-right-label\">${#roll_mod:=sameRow('skill_total')+?{Modifier|0}}$ ${#roll:=[2d6]}$ ${result:= roll + roll_mod }$ \n</td>\n</tr>\n<tr>\n<td colspan=\"2\" class=\"centred\">\n<span class=\"fumble\">${ roll == 2 ? 'FUMBLE!' : '' }$</span>\n<span class=\"mighty-blow\">${ roll == 12 ? 'MIGHTY BLOW!' : '' }$</span>\n</td>\n</tr>\n</tbody>\n</table>",
                          "altRollMessage": "",
                          "style": "label",
                          "type": "label",
                          "align": "center",
                          "colName": "Versus"
                        },
                        {
                          "key": "skill_name",
                          "cssClass": null,
                          "role": "0",
                          "permission": "0",
                          "tooltip": "",
                          "label": "",
                          "defaultValue": "",
                          "size": "full-size",
                          "charList": "",
                          "maxLength": "",
                          "type": "textField",
                          "align": "left",
                          "colName": "Advanced Skill"
                        },
                        {
                          "key": "skill_level",
                          "cssClass": null,
                          "role": "0",
                          "permission": "0",
                          "tooltip": "",
                          "label": "",
                          "defaultValue": "1",
                          "size": "x-small",
                          "allowDecimal": false,
                          "minVal": "1",
                          "maxVal": "",
                          "allowRelative": false,
                          "showControls": false,
                          "type": "numberField",
                          "align": "center",
                          "colName": "Points"
                        },
                        {
                          "key": "skill_total",
                          "cssClass": null,
                          "role": "0",
                          "permission": "0",
                          "tooltip": "",
                          "label": null,
                          "defaultValue": null,
                          "size": "full-size",
                          "icon": "",
                          "value": "${ sameRow('skill_level', 0) + skill }$",
                          "prefix": "",
                          "suffix": "",
                          "rollMessage": "",
                          "altRollMessage": "",
                          "style": "label",
                          "type": "label",
                          "align": "center",
                          "colName": "Skill Total"
                        },
                        {
                          "key": "skill_advancement_tick",
                          "cssClass": null,
                          "role": "0",
                          "permission": "0",
                          "tooltip": "",
                          "label": "",
                          "defaultValue": null,
                          "size": "x-small",
                          "type": "checkbox",
                          "align": "center",
                          "colName": ""
                        },
                        {
                          "key": "skill_advancement_roll",
                          "cssClass": null,
                          "role": "0",
                          "permission": "0",
                          "tooltip": "",
                          "label": null,
                          "defaultValue": null,
                          "size": "x-small",
                          "icon": "",
                          "value": "",
                          "prefix": "",
                          "suffix": "",
                          "rollMessage": "<h3>${skill_label:=sameRow('skill_name')}$ Improvement Test</h3>\n<table>\n<tbody>\n<tr>\n<td class=\"chat-left-label\">Target:</td>\n<td class=\"chat-right-label\">${target:=sameRow('skill_total')}$</td>\n</tr>\n<tr>\n<td class=\"chat-left-label\">Roll:</td>\n<td class=\"chat-right-label\">${roll:=[2d6]}$ -- ${ roll > target ? 'Success' : 'Fail' }$</td>\n</tr>\n</tbody>\n</table>",
                          "altRollMessage": "",
                          "style": "label",
                          "type": "label",
                          "align": "center",
                          "colName": ""
                        }
                      ],
                      "head": true,
                      "deleteWarning": true,
                      "type": "dynamicTable"
                    },
                    {
                      "key": "",
                      "cssClass": "smaller-text",
                      "role": "0",
                      "permission": "0",
                      "tooltip": "",
                      "label": null,
                      "defaultValue": null,
                      "size": "full-size",
                      "icon": "",
                      "value": "When you successfully Test an Advanced Skill or Spell you stand to learn from it. Check the box next to it (above).",
                      "prefix": "",
                      "suffix": "",
                      "rollMessage": "",
                      "altRollMessage": "",
                      "style": "label",
                      "type": "label"
                    }
                  ],
                  "name": "Advanced Skills",
                  "type": "tab"
                },
                {
                  "key": "combat",
                  "cssClass": null,
                  "role": "0",
                  "permission": "0",
                  "tooltip": "",
                  "contents": [
                    {
                      "key": "",
                      "cssClass": "",
                      "role": "0",
                      "permission": "0",
                      "tooltip": "",
                      "label": null,
                      "defaultValue": null,
                      "size": "full-size",
                      "icon": "",
                      "value": "Weapons",
                      "prefix": "",
                      "suffix": "",
                      "rollMessage": "",
                      "altRollMessage": "",
                      "style": "subtitle",
                      "type": "label"
                    },
                    {
                      "key": "weapon_container",
                      "cssClass": "",
                      "role": "0",
                      "permission": "0",
                      "tooltip": "",
                      "rowLayout": [
                        {
                          "key": "roll_wpn_dmg",
                          "cssClass": null,
                          "role": "0",
                          "permission": "0",
                          "tooltip": "",
                          "label": null,
                          "defaultValue": null,
                          "size": "full-size",
                          "icon": "",
                          "value": "",
                          "prefix": "",
                          "suffix": "",
                          "rollMessage": "<h3>${item.name}$ Damage</h3>\n<table>\n<tbody>\n<tr>\n<td class=\"chat-left-label\">Modifiers:</td>\n<td class=\"chat-right-label\">${dmg_mod:=?{Modifier|0}}$</td>\n</tr>\n<tr>\n<td class=\"chat-left-label\">Roll:</td>\n<td class=\"chat-right-label\">${roll:=[1d6+:dmg_mod:]}$</td>\n</tr>\n<tr>\n<td class=\"chat-left-label\">Damage:</td>\n<td class=\"chat-right-label\">${ roll <= 1 ? item.dmg_1 : ( roll == 2 ? item.dmg_2 : ( roll == 3 ? item.dmg_3 : ( roll == 4 ? item.dmg_4 : ( roll == 5 ? item.dmg_5 : ( roll == 6 ? item.dmg_6 : ( roll >= 7 ? item.dmg_7 : '' )))))) }$</td>\n</tr>\n</tbody>\n</table>",
                          "altRollMessage": "",
                          "style": "label",
                          "type": "label",
                          "align": "center",
                          "colName": ""
                        },
                        {
                          "key": "damage_1",
                          "cssClass": null,
                          "role": "0",
                          "permission": "0",
                          "tooltip": "",
                          "label": null,
                          "defaultValue": null,
                          "size": "full-size",
                          "icon": "",
                          "value": "${item.dmg_1}$",
                          "prefix": "",
                          "suffix": "",
                          "rollMessage": "",
                          "altRollMessage": "",
                          "style": "label",
                          "type": "label",
                          "align": "center",
                          "colName": "1"
                        },
                        {
                          "key": "damage_2",
                          "cssClass": null,
                          "role": "0",
                          "permission": "0",
                          "tooltip": "",
                          "label": null,
                          "defaultValue": null,
                          "size": "full-size",
                          "icon": "",
                          "value": "${item.dmg_2}$",
                          "prefix": "",
                          "suffix": "",
                          "rollMessage": "",
                          "altRollMessage": "",
                          "style": "label",
                          "type": "label",
                          "align": "center",
                          "colName": "2"
                        },
                        {
                          "key": "damage_3",
                          "cssClass": null,
                          "role": "0",
                          "permission": "0",
                          "tooltip": "",
                          "label": null,
                          "defaultValue": null,
                          "size": "full-size",
                          "icon": "",
                          "value": "${item.dmg_3}$",
                          "prefix": "",
                          "suffix": "",
                          "rollMessage": "",
                          "altRollMessage": "",
                          "style": "label",
                          "type": "label",
                          "align": "center",
                          "colName": "3"
                        },
                        {
                          "key": "damage_4",
                          "cssClass": null,
                          "role": "0",
                          "permission": "0",
                          "tooltip": "",
                          "label": null,
                          "defaultValue": null,
                          "size": "full-size",
                          "icon": "",
                          "value": "${item.dmg_4}$",
                          "prefix": "",
                          "suffix": "",
                          "rollMessage": "",
                          "altRollMessage": "",
                          "style": "label",
                          "type": "label",
                          "align": "center",
                          "colName": "4"
                        },
                        {
                          "key": "damage_5",
                          "cssClass": null,
                          "role": "0",
                          "permission": "0",
                          "tooltip": "",
                          "label": null,
                          "defaultValue": null,
                          "size": "full-size",
                          "icon": "",
                          "value": "${item.dmg_5}$",
                          "prefix": "",
                          "suffix": "",
                          "rollMessage": "",
                          "altRollMessage": "",
                          "style": "label",
                          "type": "label",
                          "align": "center",
                          "colName": "5"
                        },
                        {
                          "key": "damage_6",
                          "cssClass": null,
                          "role": "0",
                          "permission": "0",
                          "tooltip": "",
                          "label": null,
                          "defaultValue": null,
                          "size": "full-size",
                          "icon": "",
                          "value": "${item.dmg_6}$",
                          "prefix": "",
                          "suffix": "",
                          "rollMessage": "",
                          "altRollMessage": "",
                          "style": "label",
                          "type": "label",
                          "align": "center",
                          "colName": "6"
                        },
                        {
                          "key": "damage_7",
                          "cssClass": null,
                          "role": "0",
                          "permission": "0",
                          "tooltip": "",
                          "label": null,
                          "defaultValue": null,
                          "size": "full-size",
                          "icon": "",
                          "value": "${item.dmg_7}$",
                          "prefix": "",
                          "suffix": "",
                          "rollMessage": "",
                          "altRollMessage": "",
                          "style": "label",
                          "type": "label",
                          "align": "center",
                          "colName": "7+"
                        }
                      ],
                      "head": true,
                      "deleteWarning": true,
                      "headDisplay": true,
                      "showDelete": true,
                      "nameAlign": "left",
                      "nameLabel": "Damage Roll →",
                      "templateFilter": [
                        "qSXdbILPPsfjFCjV"
                      ],
                      "itemFilter": [],
                      "type": "itemContainer"
                    },
                    {
                      "key": "",
                      "cssClass": "",
                      "role": "0",
                      "permission": "0",
                      "tooltip": "",
                      "label": null,
                      "defaultValue": null,
                      "size": "full-size",
                      "icon": "",
                      "value": "Armour",
                      "prefix": "",
                      "suffix": "",
                      "rollMessage": "",
                      "altRollMessage": "",
                      "style": "subtitle",
                      "type": "label"
                    },
                    {
                      "key": "armour_table",
                      "cssClass": "",
                      "role": "0",
                      "permission": "0",
                      "tooltip": "",
                      "rowLayout": [
                        {
                          "key": "armour_type",
                          "cssClass": null,
                          "role": "0",
                          "permission": "0",
                          "tooltip": "",
                          "label": "",
                          "defaultValue": "",
                          "size": "full-size",
                          "charList": "",
                          "maxLength": "",
                          "type": "textField",
                          "align": "left",
                          "colName": "Type"
                        },
                        {
                          "key": "armour_protection",
                          "cssClass": null,
                          "role": "0",
                          "permission": "0",
                          "tooltip": "",
                          "label": "",
                          "defaultValue": "0",
                          "size": "full-size",
                          "options": [
                            {
                              "key": "0",
                              "value": "Unarmoured"
                            },
                            {
                              "key": "1",
                              "value": "Lightly Armoured (damage -1)"
                            },
                            {
                              "key": "2",
                              "value": "Modestly Armoured (damage -2)"
                            },
                            {
                              "key": "3",
                              "value": "Heavily Armoured (damage -3)"
                            }
                          ],
                          "tableKey": null,
                          "tableKeyColumn": null,
                          "tableLabelColumn": null,
                          "type": "select",
                          "align": "left",
                          "colName": "Protection"
                        },
                        {
                          "key": "armour_slots",
                          "cssClass": null,
                          "role": "0",
                          "permission": "0",
                          "tooltip": "",
                          "label": null,
                          "defaultValue": null,
                          "size": "full-size",
                          "icon": "",
                          "value": "",
                          "prefix": "${sameRow('armour_protection')*2}$",
                          "suffix": "",
                          "rollMessage": "",
                          "altRollMessage": "",
                          "style": "label",
                          "type": "label",
                          "align": "center",
                          "colName": "Slots†"
                        }
                      ],
                      "head": true,
                      "deleteWarning": true,
                      "type": "dynamicTable"
                    },
                    {
                      "key": "",
                      "cssClass": "smaller-text",
                      "role": "0",
                      "permission": "0",
                      "tooltip": "",
                      "label": null,
                      "defaultValue": null,
                      "size": "full-size",
                      "icon": "",
                      "value": "* indicates a Weapon that requires at least two hands to use.<br /># indicates a Weapon that ignores 1 point of Armour.<br />† indicates the number of inventory slots used, unless it is natural armour.",
                      "prefix": "",
                      "suffix": "",
                      "rollMessage": "",
                      "altRollMessage": "",
                      "style": "label",
                      "type": "label"
                    }
                  ],
                  "name": "Combat",
                  "type": "tab"
                },
                {
                  "key": "inventory",
                  "cssClass": null,
                  "role": "0",
                  "permission": "0",
                  "tooltip": "",
                  "contents": [
                    {
                      "key": "inventory_panel",
                      "cssClass": "",
                      "role": "0",
                      "permission": "0",
                      "tooltip": "",
                      "contents": [
                        {
                          "key": "inventory_slots",
                          "cssClass": "",
                          "role": "0",
                          "permission": "0",
                          "tooltip": "",
                          "rowLayout": [
                            {
                              "key": "slot_number",
                              "cssClass": null,
                              "role": "0",
                              "permission": "0",
                              "tooltip": "",
                              "label": "",
                              "defaultValue": "",
                              "size": "small",
                              "options": [
                                {
                                  "key": "1",
                                  "value": "1"
                                },
                                {
                                  "key": "2",
                                  "value": "2"
                                },
                                {
                                  "key": "3",
                                  "value": "3"
                                },
                                {
                                  "key": "4",
                                  "value": "4"
                                },
                                {
                                  "key": "5",
                                  "value": "5"
                                },
                                {
                                  "key": "6",
                                  "value": "6"
                                },
                                {
                                  "key": "7",
                                  "value": "7"
                                },
                                {
                                  "key": "8",
                                  "value": "8"
                                },
                                {
                                  "key": "9",
                                  "value": "9"
                                },
                                {
                                  "key": "10",
                                  "value": "10"
                                },
                                {
                                  "key": "11",
                                  "value": "11"
                                },
                                {
                                  "key": "12",
                                  "value": "12"
                                }
                              ],
                              "tableKey": null,
                              "tableKeyColumn": null,
                              "tableLabelColumn": null,
                              "type": "select",
                              "align": "center",
                              "colName": "Slot"
                            },
                            {
                              "key": "item_name",
                              "cssClass": null,
                              "role": "0",
                              "permission": "0",
                              "tooltip": "",
                              "label": "",
                              "defaultValue": "",
                              "size": "full-size",
                              "charList": "",
                              "maxLength": "",
                              "type": "textField",
                              "align": "left",
                              "colName": "Item"
                            },
                            {
                              "key": "item_skill",
                              "cssClass": null,
                              "role": "0",
                              "permission": "0",
                              "tooltip": "",
                              "label": "",
                              "defaultValue": "",
                              "size": "full-size",
                              "charList": "",
                              "maxLength": "",
                              "type": "textField",
                              "align": "left",
                              "colName": "Skill & Bonus"
                            },
                            {
                              "key": "item_size",
                              "cssClass": null,
                              "role": "0",
                              "permission": "0",
                              "tooltip": "",
                              "label": "",
                              "defaultValue": "Normal",
                              "size": "full-size",
                              "options": [
                                {
                                  "key": "Small",
                                  "value": "Small"
                                },
                                {
                                  "key": "Normal",
                                  "value": "Normal"
                                },
                                {
                                  "key": "Large",
                                  "value": "Large"
                                }
                              ],
                              "tableKey": null,
                              "tableKeyColumn": null,
                              "tableLabelColumn": null,
                              "type": "select",
                              "align": "left",
                              "colName": "Size"
                            },
                            {
                              "key": "in_hand",
                              "cssClass": null,
                              "role": "0",
                              "permission": "0",
                              "tooltip": "",
                              "label": "",
                              "defaultValue": null,
                              "size": "full-size",
                              "type": "checkbox",
                              "align": "center",
                              "colName": "In Hand?"
                            },
                            {
                              "key": "retrieve_item",
                              "cssClass": null,
                              "role": "0",
                              "permission": "0",
                              "tooltip": "",
                              "label": null,
                              "defaultValue": null,
                              "size": "full-size",
                              "icon": "",
                              "value": "",
                              "prefix": "",
                              "suffix": "",
                              "rollMessage": "<h3>Retrieve ${sameRow('item_name')}$</h3>\n<table>\n<tbody>\n<tr>\n<td class=\"chat-left-label\">Target:</td>\n<td class=\"chat-right-label\">${target:=sameRow('slot_number')}$</td>\n</tr>\n<tr>\n<td class=\"chat-left-label\">Roll:</td>\n<td class=\"chat-right-label\">${roll:=[2d6]}$ -- ${ roll >= target ? 'Success' : 'Fail' }$</td>\n</tr>\n<tr>\n<td colspan=\"2\">If you succeed you can pull it out and do what you intended. Otherwise you spend your entire action finding it. Double 1s  always indicate a failure. </td>\n</tr>\n</tbody>\n</table>",
                              "altRollMessage": "",
                              "style": "label",
                              "type": "label",
                              "align": "center",
                              "colName": "Retrieve"
                            }
                          ],
                          "head": true,
                          "deleteWarning": true,
                          "type": "dynamicTable"
                        },
                        {
                          "key": "",
                          "cssClass": "smaller-text",
                          "role": "0",
                          "permission": "0",
                          "tooltip": "",
                          "label": null,
                          "defaultValue": null,
                          "size": "full-size",
                          "icon": "",
                          "value": "You may carry twelve things without issue, record the things you’re lugging around with you above (make sure your slots are listed 1-12, with 1 at the top). ",
                          "prefix": "",
                          "suffix": "",
                          "rollMessage": "",
                          "altRollMessage": "",
                          "style": "label",
                          "type": "label"
                        }
                      ],
                      "flow": "vertical",
                      "align": "center",
                      "type": "panel"
                    }
                  ],
                  "name": "Inventory",
                  "type": "tab"
                },
                {
                  "key": "background_notes",
                  "cssClass": null,
                  "role": "0",
                  "permission": "0",
                  "tooltip": "",
                  "contents": [
                    {
                      "key": "",
                      "cssClass": "",
                      "role": "0",
                      "permission": "0",
                      "tooltip": "",
                      "contents": [
                        {
                          "key": "character_background",
                          "cssClass": "",
                          "role": "0",
                          "permission": "0",
                          "tooltip": "",
                          "label": "Background details",
                          "defaultValue": "",
                          "size": null,
                          "style": "dialog",
                          "type": "textArea"
                        },
                        {
                          "key": "adventure_notes",
                          "cssClass": "",
                          "role": "0",
                          "permission": "0",
                          "tooltip": "",
                          "label": "Notes",
                          "defaultValue": "",
                          "size": null,
                          "style": "dialog",
                          "type": "textArea"
                        },
                        {
                          "key": "background_special",
                          "cssClass": "",
                          "role": "0",
                          "permission": "0",
                          "tooltip": "",
                          "label": "Special",
                          "defaultValue": "",
                          "size": null,
                          "style": "dialog",
                          "type": "textArea"
                        }
                      ],
                      "flow": "grid-2",
                      "align": "left",
                      "type": "panel"
                    }
                  ],
                  "name": "Background & Notes",
                  "type": "tab"
                }
              ],
              "type": "tabbedPanel"
            }
          ],
          "key": "custom_body",
          "cssClass": null,
          "role": 0,
          "permission": 0,
          "tooltip": null,
          "flow": null,
          "align": null,
          "type": "panel"
        },
        "display": {
          "width": "600",
          "height": "600",
          "fix_size": false,
          "pp_width": "140",
          "pp_height": "auto"
        },
        "attributeBar": {},
        "activeEffects": {}
      },
      "flags": {
        "custom-system-builder": {
          "version": "2.1.0"
        }
      }
    },
    {
      "type": "_template",
      "name": "Enemy",
      "data": {
        "hidden": [],
        "header": {
          "contents": [
            {
              "key": "attributes_panel",
              "cssClass": "",
              "role": "0",
              "permission": "0",
              "tooltip": "",
              "contents": [
                {
                  "key": "skill_panel",
                  "cssClass": "",
                  "role": "0",
                  "permission": "0",
                  "tooltip": "",
                  "contents": [
                    {
                      "key": "skill_header",
                      "cssClass": "attribute_header",
                      "role": "0",
                      "permission": "0",
                      "tooltip": "",
                      "label": null,
                      "defaultValue": null,
                      "size": "full-size",
                      "icon": "",
                      "value": "Skill",
                      "prefix": "",
                      "suffix": "",
                      "rollMessage": "",
                      "altRollMessage": "",
                      "style": "label",
                      "type": "label"
                    },
                    {
                      "key": "skill",
                      "cssClass": "",
                      "role": "0",
                      "permission": "0",
                      "tooltip": "",
                      "label": "",
                      "defaultValue": "0",
                      "size": "full-size",
                      "allowDecimal": false,
                      "minVal": "0",
                      "maxVal": "",
                      "allowRelative": false,
                      "showControls": false,
                      "type": "numberField"
                    },
                    {
                      "key": "",
                      "cssClass": "",
                      "role": "0",
                      "permission": "0",
                      "tooltip": "",
                      "contents": [
                        {
                          "key": "skill_roll_under",
                          "cssClass": "",
                          "role": "0",
                          "permission": "0",
                          "tooltip": "",
                          "label": null,
                          "defaultValue": null,
                          "size": "full-size",
                          "icon": "",
                          "value": "Roll Under",
                          "prefix": "",
                          "suffix": "",
                          "rollMessage": "<h3>Skill Test</h3>\n<table>\n<tbody>\n<tr>\n<td class=\"chat-left-label\">Target:</td>\n<td class=\"chat-right-label\">${target:=skill+?{Modifier|0}}$</td>\n</tr>\n<tr>\n<td class=\"chat-left-label\">Roll:</td>\n<td class=\"chat-right-label\">${roll:=[2d6]}$</td>\n</tr>\n<tr>\n<td colspan=\"2\" class=\"centred\">\n<span class=\"mighty-blow\">${ roll <= target ? 'SUCCESS!' : '' }$</span>\n<span class=\"fumble\">${ roll > target ? 'FAIL!' : '' }$</span>\n<span class=\"fumble\">${ roll == 12 ? 'Two 6s! FAILURE!' : '' }$</span>\n</td>\n</tr>\n</tbody>\n</table>",
                          "altRollMessage": "",
                          "style": "label",
                          "type": "label"
                        },
                        {
                          "key": "skill_roll_versus",
                          "cssClass": "",
                          "role": "0",
                          "permission": "0",
                          "tooltip": "",
                          "label": null,
                          "defaultValue": null,
                          "size": "full-size",
                          "icon": "",
                          "value": "Roll Versus",
                          "prefix": "",
                          "suffix": "",
                          "rollMessage": "<h3>Skill Test</h3>\n<table>\n<tbody>\n<tr>\n<td class=\"chat-left-label\">Result:</td>\n<td class=\"chat-right-label\">${#roll_mod:=skill+?{Modifier|0}}$ ${#roll:=[2d6]}$ ${result:= roll + roll_mod }$ \n</td>\n</tr>\n<tr>\n<td colspan=\"2\" class=\"centred\">\n<span class=\"fumble\">${ roll == 2 ? 'FUMBLE!' : '' }$</span>\n<span class=\"mighty-blow\">${ roll == 12 ? 'MIGHTY BLOW!' : '' }$</span>\n</td>\n</tr>\n</tbody>\n</table>",
                          "altRollMessage": "",
                          "style": "label",
                          "type": "label"
                        }
                      ],
                      "flow": "horizontal",
                      "align": "center",
                      "type": "panel"
                    },
                    {
                      "key": "enemy_initiative",
                      "cssClass": "",
                      "role": "0",
                      "permission": "0",
                      "tooltip": "",
                      "label": "Initiative:",
                      "defaultValue": "0",
                      "size": "full-size",
                      "allowDecimal": false,
                      "minVal": "0",
                      "maxVal": "",
                      "allowRelative": false,
                      "showControls": false,
                      "type": "numberField"
                    }
                  ],
                  "flow": "vertical",
                  "align": "center",
                  "type": "panel"
                },
                {
                  "key": "stamina_panel",
                  "cssClass": "",
                  "role": "0",
                  "permission": "0",
                  "tooltip": "",
                  "contents": [
                    {
                      "key": "stamina_label",
                      "cssClass": "attribute_header",
                      "role": "0",
                      "permission": "0",
                      "tooltip": "",
                      "label": null,
                      "defaultValue": null,
                      "size": "full-size",
                      "icon": "",
                      "value": "Stamina",
                      "prefix": "",
                      "suffix": "",
                      "rollMessage": "",
                      "altRollMessage": "",
                      "style": "label",
                      "type": "label"
                    },
                    {
                      "key": "stamina",
                      "cssClass": "",
                      "role": "0",
                      "permission": "0",
                      "tooltip": "",
                      "label": "",
                      "defaultValue": "0",
                      "size": "full-size",
                      "allowDecimal": false,
                      "minVal": "0",
                      "maxVal": "",
                      "allowRelative": false,
                      "showControls": false,
                      "type": "numberField"
                    },
                    {
                      "key": "",
                      "cssClass": "",
                      "role": "0",
                      "permission": "0",
                      "tooltip": "",
                      "contents": [
                        {
                          "key": "stamina_current",
                          "cssClass": "",
                          "role": "0",
                          "permission": "0",
                          "tooltip": "",
                          "label": "Current: ",
                          "defaultValue": "0",
                          "size": "full-size",
                          "allowDecimal": false,
                          "minVal": "0",
                          "maxVal": "",
                          "allowRelative": false,
                          "showControls": false,
                          "type": "numberField"
                        }
                      ],
                      "flow": "vertical",
                      "align": "center",
                      "type": "panel"
                    },
                    {
                      "key": "enemy_armour",
                      "cssClass": "",
                      "role": "0",
                      "permission": "0",
                      "tooltip": "",
                      "label": "Armour:",
                      "defaultValue": "0",
                      "size": "full-size",
                      "allowDecimal": false,
                      "minVal": "0",
                      "maxVal": "",
                      "allowRelative": false,
                      "showControls": false,
                      "type": "numberField"
                    }
                  ],
                  "flow": "vertical",
                  "align": "center",
                  "type": "panel"
                },
                {
                  "key": "mein_panel",
                  "cssClass": "",
                  "role": "0",
                  "permission": "0",
                  "tooltip": "",
                  "contents": [
                    {
                      "key": "mein_header",
                      "cssClass": "",
                      "role": "0",
                      "permission": "0",
                      "tooltip": "",
                      "label": null,
                      "defaultValue": null,
                      "size": "full-size",
                      "icon": "",
                      "value": "Mein",
                      "prefix": "",
                      "suffix": "",
                      "rollMessage": "<h3>Enemy Mein</h3>\n<table>\n<tbody>\n<tr>\n<td class=\"chat-left-label\">Result:</td>\n<td class=\"chat-right-label\">${roll:=[1d6]}$</td>\n</tr>\n</tbody>\n</table>",
                      "altRollMessage": "",
                      "style": "label",
                      "type": "label"
                    },
                    {
                      "key": "mein_table",
                      "cssClass": "",
                      "role": "0",
                      "permission": "0",
                      "tooltip": "",
                      "contents": [
                        [
                          {
                            "key": "",
                            "cssClass": "",
                            "role": "0",
                            "permission": "0",
                            "tooltip": "",
                            "label": null,
                            "defaultValue": null,
                            "size": "x-small",
                            "icon": "",
                            "value": "1",
                            "prefix": "",
                            "suffix": "",
                            "rollMessage": "",
                            "altRollMessage": "",
                            "style": "label",
                            "type": "label"
                          },
                          {
                            "key": "mein_1",
                            "cssClass": "",
                            "role": "0",
                            "permission": "0",
                            "tooltip": "",
                            "label": "",
                            "defaultValue": "",
                            "size": "full-size",
                            "charList": "",
                            "maxLength": "",
                            "type": "textField"
                          }
                        ],
                        [
                          {
                            "key": "",
                            "cssClass": "",
                            "role": "0",
                            "permission": "0",
                            "tooltip": "",
                            "label": null,
                            "defaultValue": null,
                            "size": "x-small",
                            "icon": "",
                            "value": "2",
                            "prefix": "",
                            "suffix": "",
                            "rollMessage": "",
                            "altRollMessage": "",
                            "style": "label",
                            "type": "label"
                          },
                          {
                            "key": "mein_2",
                            "cssClass": "",
                            "role": "0",
                            "permission": "0",
                            "tooltip": "",
                            "label": "",
                            "defaultValue": "",
                            "size": "full-size",
                            "charList": "",
                            "maxLength": "",
                            "type": "textField"
                          }
                        ],
                        [
                          {
                            "key": "",
                            "cssClass": "",
                            "role": "0",
                            "permission": "0",
                            "tooltip": "",
                            "label": null,
                            "defaultValue": null,
                            "size": "x-small",
                            "icon": "",
                            "value": "3",
                            "prefix": "",
                            "suffix": "",
                            "rollMessage": "",
                            "altRollMessage": "",
                            "style": "label",
                            "type": "label"
                          },
                          {
                            "key": "mein_3",
                            "cssClass": "",
                            "role": "0",
                            "permission": "0",
                            "tooltip": "",
                            "label": "",
                            "defaultValue": "",
                            "size": "full-size",
                            "charList": "",
                            "maxLength": "",
                            "type": "textField"
                          }
                        ],
                        [
                          {
                            "key": "",
                            "cssClass": "",
                            "role": "0",
                            "permission": "0",
                            "tooltip": "",
                            "label": null,
                            "defaultValue": null,
                            "size": "x-small",
                            "icon": "",
                            "value": "4",
                            "prefix": "",
                            "suffix": "",
                            "rollMessage": "",
                            "altRollMessage": "",
                            "style": "label",
                            "type": "label"
                          },
                          {
                            "key": "mein_4",
                            "cssClass": "",
                            "role": "0",
                            "permission": "0",
                            "tooltip": "",
                            "label": "",
                            "defaultValue": "",
                            "size": "full-size",
                            "charList": "",
                            "maxLength": "",
                            "type": "textField"
                          }
                        ],
                        [
                          {
                            "key": "",
                            "cssClass": "",
                            "role": "0",
                            "permission": "0",
                            "tooltip": "",
                            "label": null,
                            "defaultValue": null,
                            "size": "x-small",
                            "icon": "",
                            "value": "5",
                            "prefix": "",
                            "suffix": "",
                            "rollMessage": "",
                            "altRollMessage": "",
                            "style": "label",
                            "type": "label"
                          },
                          {
                            "key": "mein_5",
                            "cssClass": "",
                            "role": "0",
                            "permission": "0",
                            "tooltip": "",
                            "label": "",
                            "defaultValue": "",
                            "size": "full-size",
                            "charList": "",
                            "maxLength": "",
                            "type": "textField"
                          }
                        ],
                        [
                          {
                            "key": "",
                            "cssClass": "",
                            "role": "0",
                            "permission": "0",
                            "tooltip": "",
                            "label": null,
                            "defaultValue": null,
                            "size": "x-small",
                            "icon": "",
                            "value": "6",
                            "prefix": "",
                            "suffix": "",
                            "rollMessage": "",
                            "altRollMessage": "",
                            "style": "label",
                            "type": "label"
                          },
                          {
                            "key": "mein_6",
                            "cssClass": "",
                            "role": "0",
                            "permission": "0",
                            "tooltip": "",
                            "label": "",
                            "defaultValue": "",
                            "size": "full-size",
                            "charList": "",
                            "maxLength": "",
                            "type": "textField"
                          }
                        ]
                      ],
                      "cols": "2",
                      "rows": "6",
                      "layout": "cl",
                      "type": "table"
                    }
                  ],
                  "flow": "vertical",
                  "align": "center",
                  "type": "panel"
                }
              ],
              "flow": "grid-3",
              "align": "center",
              "type": "panel"
            }
          ],
          "key": "custom_header",
          "cssClass": null,
          "role": 0,
          "permission": 0,
          "tooltip": null,
          "flow": null,
          "align": null,
          "type": "panel"
        },
        "body": {
          "contents": [
            {
              "key": "enemy_damage_container",
              "cssClass": "",
              "role": "0",
              "permission": "0",
              "tooltip": "",
              "rowLayout": [
                {
                  "key": "roll_enemy_damage",
                  "cssClass": null,
                  "role": "0",
                  "permission": "0",
                  "tooltip": "",
                  "label": null,
                  "defaultValue": null,
                  "size": "full-size",
                  "icon": "",
                  "value": "",
                  "prefix": "",
                  "suffix": "",
                  "rollMessage": "<h3>Enemy Damage</h3>\n<table>\n<tbody>\n<tr>\n<td class=\"chat-left-label\">Modifiers:</td>\n<td class=\"chat-right-label\">${dmg_mod:=?{Modifier|0}}$</td>\n</tr>\n<tr>\n<td class=\"chat-left-label\">Roll:</td>\n<td class=\"chat-right-label\">${roll:=[1d6+:dmg_mod:]}$</td>\n</tr>\n<tr>\n<td class=\"chat-left-label\">Damage:</td>\n<td class=\"chat-right-label\">${ roll <= 1 ? item.dmg_1 : ( roll == 2 ? item.dmg_2 : ( roll == 3 ? item.dmg_3 : ( roll == 4 ? item.dmg_4 : ( roll == 5 ? item.dmg_5 : ( roll == 6 ? item.dmg_6 : ( roll >= 7 ? item.dmg_7 : '' )))))) }$</td>\n</tr>\n</tbody>\n</table>",
                  "altRollMessage": "",
                  "style": "label",
                  "type": "label",
                  "align": "center",
                  "colName": ""
                },
                {
                  "key": "enemy_damage_1",
                  "cssClass": null,
                  "role": "0",
                  "permission": "0",
                  "tooltip": "",
                  "label": null,
                  "defaultValue": null,
                  "size": "full-size",
                  "icon": "",
                  "value": "${item.dmg_1}$",
                  "prefix": "",
                  "suffix": "",
                  "rollMessage": "",
                  "altRollMessage": "",
                  "style": "label",
                  "type": "label",
                  "align": "center",
                  "colName": "1"
                },
                {
                  "key": "enemy_damage_2",
                  "cssClass": null,
                  "role": "0",
                  "permission": "0",
                  "tooltip": "",
                  "label": null,
                  "defaultValue": null,
                  "size": "full-size",
                  "icon": "",
                  "value": "${item.dmg_2}$",
                  "prefix": "",
                  "suffix": "",
                  "rollMessage": "",
                  "altRollMessage": "",
                  "style": "label",
                  "type": "label",
                  "align": "center",
                  "colName": "2"
                },
                {
                  "key": "enemy_damage_3",
                  "cssClass": null,
                  "role": "0",
                  "permission": "0",
                  "tooltip": "",
                  "label": null,
                  "defaultValue": null,
                  "size": "full-size",
                  "icon": "",
                  "value": "${item.dmg_3}$",
                  "prefix": "",
                  "suffix": "",
                  "rollMessage": "",
                  "altRollMessage": "",
                  "style": "label",
                  "type": "label",
                  "align": "center",
                  "colName": "3"
                },
                {
                  "key": "enemy_damage_4",
                  "cssClass": null,
                  "role": "0",
                  "permission": "0",
                  "tooltip": "",
                  "label": null,
                  "defaultValue": null,
                  "size": "full-size",
                  "icon": "",
                  "value": "${item.dmg_4}$",
                  "prefix": "",
                  "suffix": "",
                  "rollMessage": "",
                  "altRollMessage": "",
                  "style": "label",
                  "type": "label",
                  "align": "center",
                  "colName": "4"
                },
                {
                  "key": "enemy_damage_5",
                  "cssClass": null,
                  "role": "0",
                  "permission": "0",
                  "tooltip": "",
                  "label": null,
                  "defaultValue": null,
                  "size": "full-size",
                  "icon": "",
                  "value": "${item.dmg_5}$",
                  "prefix": "",
                  "suffix": "",
                  "rollMessage": "",
                  "altRollMessage": "",
                  "style": "label",
                  "type": "label",
                  "align": "center",
                  "colName": "5"
                },
                {
                  "key": "enemy_damage_6",
                  "cssClass": null,
                  "role": "0",
                  "permission": "0",
                  "tooltip": "",
                  "label": null,
                  "defaultValue": null,
                  "size": "full-size",
                  "icon": "",
                  "value": "${item.dmg_6}$",
                  "prefix": "",
                  "suffix": "",
                  "rollMessage": "",
                  "altRollMessage": "",
                  "style": "label",
                  "type": "label",
                  "align": "center",
                  "colName": "6"
                },
                {
                  "key": "enemy_damage_7",
                  "cssClass": null,
                  "role": "0",
                  "permission": "0",
                  "tooltip": "",
                  "label": null,
                  "defaultValue": null,
                  "size": "full-size",
                  "icon": "",
                  "value": "${item.dmg_7}$",
                  "prefix": "",
                  "suffix": "",
                  "rollMessage": "",
                  "altRollMessage": "",
                  "style": "label",
                  "type": "label",
                  "align": "center",
                  "colName": "7+"
                }
              ],
              "head": true,
              "deleteWarning": true,
              "headDisplay": true,
              "showDelete": true,
              "nameAlign": "left",
              "nameLabel": "Damage Roll →",
              "templateFilter": [
                "qSXdbILPPsfjFCjV"
              ],
              "itemFilter": [],
              "type": "itemContainer"
            },
            {
              "key": "",
              "cssClass": "",
              "role": "0",
              "permission": "0",
              "tooltip": "",
              "contents": [
                {
                  "key": "character_background",
                  "cssClass": "",
                  "role": "0",
                  "permission": "0",
                  "tooltip": "",
                  "label": "",
                  "defaultValue": "",
                  "size": null,
                  "style": "dialog",
                  "type": "textArea"
                },
                {
                  "key": "background_special",
                  "cssClass": "",
                  "role": "0",
                  "permission": "0",
                  "tooltip": "",
                  "label": "Special",
                  "defaultValue": "",
                  "size": null,
                  "style": "dialog",
                  "type": "textArea"
                }
              ],
              "flow": "vertical",
              "align": "left",
              "type": "panel"
            }
          ],
          "key": "custom_body",
          "cssClass": null,
          "role": 0,
          "permission": 0,
          "tooltip": null,
          "flow": null,
          "align": null,
          "type": "panel"
        },
        "display": {
          "width": "600",
          "height": "600",
          "fix_size": false,
          "pp_width": "0",
          "pp_height": "0"
        },
        "attributeBar": {},
        "activeEffects": {}
      },
      "flags": {
        "custom-system-builder": {
          "version": "2.1.0"
        }
      }
    }
  ],
  "items": [
    {
      "type": "_equippableItemTemplate",
      "name": "Item with Damage",
      "data": {
        "hidden": [],
        "header": {
          "contents": [
            {
              "key": "",
              "cssClass": "small-caps centred",
              "role": "0",
              "permission": "0",
              "tooltip": "",
              "label": null,
              "defaultValue": null,
              "size": "full-size",
              "icon": "",
              "value": "Damage Roll →",
              "prefix": "",
              "suffix": "",
              "rollMessage": "",
              "altRollMessage": "",
              "style": "bold",
              "type": "label"
            },
            {
              "key": "damage_table",
              "cssClass": "",
              "role": "0",
              "permission": "0",
              "tooltip": "",
              "contents": [
                [
                  {
                    "key": "",
                    "cssClass": "",
                    "role": "0",
                    "permission": "0",
                    "tooltip": "",
                    "label": null,
                    "defaultValue": null,
                    "size": "full-size",
                    "icon": "",
                    "value": "1",
                    "prefix": "",
                    "suffix": "",
                    "rollMessage": "",
                    "altRollMessage": "",
                    "style": "bold",
                    "type": "label"
                  },
                  {
                    "key": "",
                    "cssClass": "",
                    "role": "0",
                    "permission": "0",
                    "tooltip": "",
                    "label": null,
                    "defaultValue": null,
                    "size": "full-size",
                    "icon": "",
                    "value": "2",
                    "prefix": "",
                    "suffix": "",
                    "rollMessage": "",
                    "altRollMessage": "",
                    "style": "bold",
                    "type": "label"
                  },
                  {
                    "key": "",
                    "cssClass": "",
                    "role": "0",
                    "permission": "0",
                    "tooltip": "",
                    "label": null,
                    "defaultValue": null,
                    "size": "full-size",
                    "icon": "",
                    "value": "3",
                    "prefix": "",
                    "suffix": "",
                    "rollMessage": "",
                    "altRollMessage": "",
                    "style": "bold",
                    "type": "label"
                  },
                  {
                    "key": "",
                    "cssClass": "",
                    "role": "0",
                    "permission": "0",
                    "tooltip": "",
                    "label": null,
                    "defaultValue": null,
                    "size": "full-size",
                    "icon": "",
                    "value": "4",
                    "prefix": "",
                    "suffix": "",
                    "rollMessage": "",
                    "altRollMessage": "",
                    "style": "bold",
                    "type": "label"
                  },
                  {
                    "key": "",
                    "cssClass": "",
                    "role": "0",
                    "permission": "0",
                    "tooltip": "",
                    "label": null,
                    "defaultValue": null,
                    "size": "full-size",
                    "icon": "",
                    "value": "5",
                    "prefix": "",
                    "suffix": "",
                    "rollMessage": "",
                    "altRollMessage": "",
                    "style": "bold",
                    "type": "label"
                  },
                  {
                    "key": "",
                    "cssClass": "",
                    "role": "0",
                    "permission": "0",
                    "tooltip": "",
                    "label": null,
                    "defaultValue": null,
                    "size": "full-size",
                    "icon": "",
                    "value": "6",
                    "prefix": "",
                    "suffix": "",
                    "rollMessage": "",
                    "altRollMessage": "",
                    "style": "bold",
                    "type": "label"
                  },
                  {
                    "key": "",
                    "cssClass": "",
                    "role": "0",
                    "permission": "0",
                    "tooltip": "",
                    "label": null,
                    "defaultValue": null,
                    "size": "full-size",
                    "icon": "",
                    "value": "7+",
                    "prefix": "",
                    "suffix": "",
                    "rollMessage": "",
                    "altRollMessage": "",
                    "style": "bold",
                    "type": "label"
                  }
                ],
                [
                  {
                    "key": "dmg_1",
                    "cssClass": "",
                    "role": "0",
                    "permission": "0",
                    "tooltip": "",
                    "label": "",
                    "defaultValue": "",
                    "size": "full-size",
                    "allowDecimal": false,
                    "minVal": "",
                    "maxVal": "",
                    "allowRelative": false,
                    "showControls": false,
                    "type": "numberField"
                  },
                  {
                    "key": "dmg_2",
                    "cssClass": "",
                    "role": "0",
                    "permission": "0",
                    "tooltip": "",
                    "label": "",
                    "defaultValue": "",
                    "size": "full-size",
                    "allowDecimal": false,
                    "minVal": "",
                    "maxVal": "",
                    "allowRelative": false,
                    "showControls": false,
                    "type": "numberField"
                  },
                  {
                    "key": "dmg_3",
                    "cssClass": "",
                    "role": "0",
                    "permission": "0",
                    "tooltip": "",
                    "label": "",
                    "defaultValue": "",
                    "size": "full-size",
                    "allowDecimal": false,
                    "minVal": "",
                    "maxVal": "",
                    "allowRelative": false,
                    "showControls": false,
                    "type": "numberField"
                  },
                  {
                    "key": "dmg_4",
                    "cssClass": "",
                    "role": "0",
                    "permission": "0",
                    "tooltip": "",
                    "label": "",
                    "defaultValue": "",
                    "size": "full-size",
                    "allowDecimal": false,
                    "minVal": "",
                    "maxVal": "",
                    "allowRelative": false,
                    "showControls": false,
                    "type": "numberField"
                  },
                  {
                    "key": "dmg_5",
                    "cssClass": "",
                    "role": "0",
                    "permission": "0",
                    "tooltip": "",
                    "label": "",
                    "defaultValue": "",
                    "size": "full-size",
                    "allowDecimal": false,
                    "minVal": "",
                    "maxVal": "",
                    "allowRelative": false,
                    "showControls": false,
                    "type": "numberField"
                  },
                  {
                    "key": "dmg_6",
                    "cssClass": "",
                    "role": "0",
                    "permission": "0",
                    "tooltip": "",
                    "label": "",
                    "defaultValue": "",
                    "size": "full-size",
                    "allowDecimal": false,
                    "minVal": "",
                    "maxVal": "",
                    "allowRelative": false,
                    "showControls": false,
                    "type": "numberField"
                  },
                  {
                    "key": "dmg_7",
                    "cssClass": "",
                    "role": "0",
                    "permission": "0",
                    "tooltip": "",
                    "label": "",
                    "defaultValue": "",
                    "size": "full-size",
                    "allowDecimal": false,
                    "minVal": "",
                    "maxVal": "",
                    "allowRelative": false,
                    "showControls": false,
                    "type": "numberField"
                  }
                ]
              ],
              "cols": "7",
              "rows": "2",
              "layout": "ccccccc",
              "type": "table"
            },
            {
              "key": "",
              "cssClass": "smaller-text",
              "role": "0",
              "permission": "0",
              "tooltip": "",
              "label": null,
              "defaultValue": null,
              "size": "full-size",
              "icon": "",
              "value": "* indicates a Weapon that requires at least two hands to use.<br/># indicates a Weapon that ignores 1 point of Armour.",
              "prefix": "",
              "suffix": "",
              "rollMessage": "",
              "altRollMessage": "",
              "style": "label",
              "type": "label"
            }
          ],
          "cssClass": null,
          "role": 0,
          "permission": 0,
          "tooltip": null,
          "flow": null,
          "align": null,
          "type": "panel"
        },
        "body": {
          "contents": [
            {
              "key": "description",
              "cssClass": "",
              "role": "0",
              "permission": "0",
              "tooltip": "",
              "label": "Description",
              "defaultValue": "",
              "size": null,
              "style": "dialog",
              "type": "textArea"
            }
          ],
          "cssClass": null,
          "role": 0,
          "permission": 0,
          "tooltip": null,
          "flow": null,
          "align": null,
          "type": "panel"
        },
        "display": {
          "width": "600",
          "height": "600",
          "fix_size": false,
          "pp_width": "64",
          "pp_height": "64"
        }
      },
      "flags": {
        "custom-system-builder": {
          "version": "2.1.0"
        }
      }
    }
  ]
}